<?xml version="1.0" encoding="UTF-8" standalone="no"?>
<!-- Created with Inkscape (http://www.inkscape.org/) -->

<svg
   xmlns:dc="http://purl.org/dc/elements/1.1/"
   xmlns:cc="http://creativecommons.org/ns#"
   xmlns:rdf="http://www.w3.org/1999/02/22-rdf-syntax-ns#"
   xmlns:svg="http://www.w3.org/2000/svg"
   xmlns="http://www.w3.org/2000/svg"
   xmlns:sodipodi="http://sodipodi.sourceforge.net/DTD/sodipodi-0.dtd"
   xmlns:inkscape="http://www.inkscape.org/namespaces/inkscape"
   width="125mm"
   height="45mm"
   viewBox="0 0 442.91339 159.44883"
   id="svg3417"
   version="1.1"
   inkscape:version="0.91 r13725"
   sodipodi:docname="ballon.svg">
  <defs
     id="defs3419" />
  <sodipodi:namedview
     id="base"
     pagecolor="#ffffff"
     bordercolor="#666666"
     borderopacity="1.0"
     inkscape:pageopacity="0.0"
     inkscape:pageshadow="2"
     inkscape:zoom="0.98994949"
     inkscape:cx="264.40909"
     inkscape:cy="159.46961"
     inkscape:document-units="px"
     inkscape:current-layer="layer1"
     showgrid="false"
     inkscape:window-width="1366"
     inkscape:window-height="705"
     inkscape:window-x="-8"
     inkscape:window-y="-8"
     inkscape:window-maximized="1" />
  <metadata
     id="metadata3422">
    <rdf:RDF>
      <cc:Work
         rdf:about="">
        <dc:format>image/svg+xml</dc:format>
        <dc:type
           rdf:resource="http://purl.org/dc/dcmitype/StillImage" />
        <dc:title />
      </cc:Work>
    </rdf:RDF>
  </metadata>
  <g
     inkscape:label="Capa 1"
     inkscape:groupmode="layer"
     id="layer1"
     transform="translate(0,-892.93779)">
    <g
       id="g3464"
       transform="matrix(0.98353953,0,0,0.90973126,-126.9181,182.66227)">
      <text
         sodipodi:linespacing="125%"
         id="text3442"
         y="903.86975"
         x="139.40105"
         style="font-style:normal;font-weight:normal;font-size:40px;line-height:125%;font-family:sans-serif;letter-spacing:0px;word-spacing:0px;fill:#ff0000;fill-opacity:1;stroke:none;stroke-width:1px;stroke-linecap:butt;stroke-linejoin:miter;stroke-opacity:1"
         xml:space="preserve"><tspan
           style="font-style:normal;font-variant:normal;font-weight:normal;font-stretch:normal;font-size:60px;font-family:'Segoe Print';-inkscape-font-specification:'Segoe Print';fill:#ff0000"
           y="903.86975"
           x="139.40105"
           id="tspan3444"
           sodipodi:role="line">Balloon    <tspan
   id="tspan3454"
   style="font-size:62.5px">Red</tspan></tspan></text>
      <path
         style="fill:#ff0000"
         d="m 402.69047,936.62518 c -1.52717,-1.62724 -1.15848,-2.90345 2.63444,-9.11858 l 4.41013,-7.22652 -3.59147,-6.88759 c -5.62194,-10.7815 -7.64674,-16.87435 -6.92137,-20.82715 0.59315,-3.23226 0.14638,-3.89572 -3.93102,-5.8375 -10.52489,-5.01228 -22.32411,-20.80595 -28.03304,-37.52319 -7.39337,-21.64977 2.61302,-43.06853 24.59059,-52.63629 12.20507,-5.3134 22.74705,-5.3134 34.95213,0 21.93102,9.5475 31.96829,31.03239 24.5906,52.63629 -5.70137,16.6951 -17.50802,32.51085 -27.99965,37.50729 -4.19873,1.99955 -4.51441,2.52039 -3.9166,6.46175 0.81414,5.36762 -1.3793,9.11266 -6.2093,10.6016 l -3.7346,1.15127 3.16691,6.01491 c 4.19612,7.96965 4.02163,10.6878 -1.24841,19.44592 -4.90327,8.14864 -6.13966,9.02912 -8.75934,6.23779 z m 9.24685,-39.39564 c 2.182,-2.32497 0.72854,-5.24051 -2.61252,-5.24051 -1.48985,0 -3.05187,0.79051 -3.47113,1.7567 -0.75459,1.73893 1.55818,5.21092 3.47113,5.21092 0.54538,0 1.72101,-0.77719 2.61252,-1.72711 z m 9.04383,-16.62733 c 7.68362,-4.56336 16.50017,-15.41617 21.4098,-26.35451 3.411,-7.59952 4.18514,-10.98082 4.25397,-18.58034 0.10203,-11.26739 -2.69556,-17.48369 -11.69913,-25.99562 -7.92402,-7.49135 -15.41127,-10.58443 -25.62099,-10.58443 -10.20973,0 -17.69697,3.09308 -25.62099,10.58443 -9.00359,8.51193 -11.80117,14.72823 -11.69914,25.99562 0.10388,11.47021 5.37675,24.2915 14.30098,34.77371 11.52323,13.53491 23.22245,16.96318 34.6755,10.16114 z m 12.85672,-43.96713 c -0.48151,-0.42579 -0.87547,-2.27561 -0.87547,-4.1107 0,-8.20471 -11.59191,-20.04647 -20.91386,-21.36465 -5.36481,-0.75862 -7.18635,-2.47748 -5.37383,-5.0709 1.68631,-2.41285 12.18469,-0.40347 18.27477,3.49776 2.93473,1.87996 6.91637,5.53007 8.84807,8.11139 3.84984,5.14445 7.34904,15.33468 6.18603,18.01478 -0.75382,1.73715 -4.57568,2.31072 -6.14571,0.92232 z"
         id="path3456"
         inkscape:connector-curvature="0" />
    </g>
  </g>
</svg>
